…
    ## Rows: 1868 Columns: 32
    ## ── Column specification ──────────────────────────────────────────────────────────────────
    ## Delimiter: ","
    ## chr (22): Division, Line, Station Name, Route1, Route2, Route3, Route4, Rout...
    ## dbl  (8): Station Latitude, Station Longitude, Route8, Route9, Route10, Rout...
    ## lgl  (2): ADA, Free Crossover
    ## 
    ## ℹ Use `spec()` to retrieve the full column specification for this data.
    ## ℹ Specify the column types or set `show_col_types = FALSE` to quiet this message.

``` r
subway
```

    ## # A tibble: 1,868 × 20
    ##    line     station_…¹ stati…² stati…³ route1 route2 route3 route4 route5 route6
    ##    <chr>    <chr>        <dbl>   <dbl> <chr>  <chr>  <chr>  <chr>  <chr>  <chr> 
    ##  1 4 Avenue 25th St       40.7   -74.0 R      <NA>   <NA>   <NA>   <NA>   <NA>  
    ##  2 4 Avenue 25th St       40.7   -74.0 R      <NA>   <NA>   <NA>   <NA>   <NA>  
    ##  3 4 Avenue 36th St       40.7   -74.0 N      R      <NA>   <NA>   <NA>   <NA>  
    ##  4 4 Avenue 36th St       40.7   -74.0 N      R      <NA>   <NA>   <NA>   <NA>  
    ##  5 4 Avenue 36th St       40.7   -74.0 N      R      <NA>   <NA>   <NA>   <NA>  
    ##  6 4 Avenue 45th St       40.6   -74.0 R      <NA>   <NA>   <NA>   <NA>   <NA>  
    ##  7 4 Avenue 45th St       40.6   -74.0 R      <NA>   <NA>   <NA>   <NA>   <NA>  
    ##  8 4 Avenue 45th St       40.6   -74.0 R      <NA>   <NA>   <NA>   <NA>   <NA>  
    ##  9 4 Avenue 45th St       40.6   -74.0 R      <NA>   <NA>   <NA>   <NA>   <NA>  
    ## 10 4 Avenue 53rd St       40.6   -74.0 R      <NA>   <NA>   <NA>   <NA>   <NA>  
    ## # … with 1,858 more rows, 10 more variables: route7 <chr>, route8 <chr>,
    ## #   route9 <chr>, route10 <chr>, route11 <chr>, entry <lgl>, exit_only <chr>,
    ## #   vending <chr>, entrance_type <chr>, ada <lgl>, and abbreviated variable
    ## #   names ¹​station_name, ²​station_latitude, ³​station_longitude
…
This data is not tidy because the route variables should be converted
from a wide to long format.

We can use the following code to find the number of distinct stations:

``` r
subway %>% 
  select(station_name, line) %>% 
  distinct
```

    ## # A tibble: 465 × 2
    ##    station_name             line    
    ##    <chr>                    <chr>   
    ##  1 25th St                  4 Avenue
    ##  2 36th St                  4 Avenue
    ##  3 45th St                  4 Avenue
    ##  4 53rd St                  4 Avenue
    ##  5 59th St                  4 Avenue
    ##  6 77th St                  4 Avenue
    ##  7 86th St                  4 Avenue
    ##  8 95th St                  4 Avenue
    ##  9 9th St                   4 Avenue
    ## 10 Atlantic Av-Barclays Ctr 4 Avenue
    ## # … with 455 more rows

There are 465 distinct stations.

We can use the following code to find the number of ADA compliant
stations:

``` r
subway %>% 
  filter(ada == TRUE) %>% 
  select(station_name, line) %>% 
  distinct
```

    ## # A tibble: 84 × 2
    ##    station_name                   line           
    ##    <chr>                          <chr>          
    ##  1 Atlantic Av-Barclays Ctr       4 Avenue       
    ##  2 DeKalb Av                      4 Avenue       
    ##  3 Pacific St                     4 Avenue       
    ##  4 Grand Central                  42nd St Shuttle
    ##  5 34th St                        6 Avenue       
    ##  6 47-50th Sts Rockefeller Center 6 Avenue       
    ##  7 Church Av                      6 Avenue       
    ##  8 21st St                        63rd Street    
    ##  9 Lexington Av                   63rd Street    
    ## 10 Roosevelt Island               63rd Street    
    ## # … with 74 more rows
…
``` r
subway %>% 
  pivot_longer(
    route1:route11,
    names_to = "route_num",
    values_to = "route") %>% 
  filter(route == "A") %>% 
  select(station_name, line) %>% 
  distinct
```

    ## # A tibble: 60 × 2
    ##    station_name                  line           
    ##    <chr>                         <chr>          
    ##  1 Times Square                  42nd St Shuttle
    ##  2 125th St                      8 Avenue       
    ##  3 145th St                      8 Avenue       
    ##  4 14th St                       8 Avenue       
    ##  5 168th St - Washington Heights 8 Avenue       
    ##  6 175th St                      8 Avenue       
    ##  7 181st St                      8 Avenue       
    ##  8 190th St                      8 Avenue       
    ##  9 34th St                       8 Avenue       
    ## 10 42nd St                       8 Avenue       
    ## # … with 50 more rows
…
## Exploratory Data Analysis (EDA):

### NOAA National Climatic Data Center for all weather stations in New York State:

Let’s load the data:

``` r
data("ny_noaa")

ny_noaa
```

    ## # A tibble: 2,595,176 × 7
    ##    id          date        prcp  snow  snwd tmax  tmin 
    ##    <chr>       <date>     <int> <int> <int> <chr> <chr>
    ##  1 US1NYAB0001 2007-11-01    NA    NA    NA <NA>  <NA> 
    ##  2 US1NYAB0001 2007-11-02    NA    NA    NA <NA>  <NA> 
    ##  3 US1NYAB0001 2007-11-03    NA    NA    NA <NA>  <NA> 
    ##  4 US1NYAB0001 2007-11-04    NA    NA    NA <NA>  <NA> 
    ##  5 US1NYAB0001 2007-11-05    NA    NA    NA <NA>  <NA> 
    ##  6 US1NYAB0001 2007-11-06    NA    NA    NA <NA>  <NA> 
    ##  7 US1NYAB0001 2007-11-07    NA    NA    NA <NA>  <NA> 
    ##  8 US1NYAB0001 2007-11-08    NA    NA    NA <NA>  <NA> 
    ##  9 US1NYAB0001 2007-11-09    NA    NA    NA <NA>  <NA> 
    ## 10 US1NYAB0001 2007-11-10    NA    NA    NA <NA>  <NA> 
    ## # … with 2,595,166 more rows
…
Let’s now do some data cleaning of this dataset:

``` r
ny_noaa_clean <- ny_noaa %>% 
  janitor::clean_names() %>%
  separate(date, sep = "-", into = c("year", "month", "day")) %>%
  mutate_at(c(2:9), as.numeric) %>% 
  mutate(prcp = prcp/10) %>% 
  mutate(tmin = tmin/10, tmax = tmax/10) %>% 
  mutate(month = month.name[as.numeric(month)])
ny_noaa_clean
```

    ## # A tibble: 2,595,176 × 9
    ##    id           year month      day  prcp  snow  snwd  tmax  tmin
    ##    <chr>       <dbl> <chr>    <dbl> <dbl> <dbl> <dbl> <dbl> <dbl>
    ##  1 US1NYAB0001  2007 November     1    NA    NA    NA    NA    NA
    ##  2 US1NYAB0001  2007 November     2    NA    NA    NA    NA    NA
    ##  3 US1NYAB0001  2007 November     3    NA    NA    NA    NA    NA
    ##  4 US1NYAB0001  2007 November     4    NA    NA    NA    NA    NA
    ##  5 US1NYAB0001  2007 November     5    NA    NA    NA    NA    NA
    ##  6 US1NYAB0001  2007 November     6    NA    NA    NA    NA    NA
    ##  7 US1NYAB0001  2007 November     7    NA    NA    NA    NA    NA
    ##  8 US1NYAB0001  2007 November     8    NA    NA    NA    NA    NA
    ##  9 US1NYAB0001  2007 November     9    NA    NA    NA    NA    NA
    ## 10 US1NYAB0001  2007 November    10    NA    NA    NA    NA    NA
    ## # … with 2,595,166 more rows
…
